\boolfalse {citerequest}\boolfalse {citetracker}\boolfalse {pagetracker}\boolfalse {backtracker}\relax 
\defcounter {refsection}{0}\relax 
\contentsline {chapter}{Glossary}{1}{section*.1}% 
\defcounter {refsection}{0}\relax 
\contentsline {chapter}{\numberline {1}Introduction}{4}{chapter.1}% 
\defcounter {refsection}{0}\relax 
\contentsline {chapter}{\numberline {2}Preliminary investigation}{5}{chapter.2}% 
\defcounter {refsection}{0}\relax 
\contentsline {section}{\numberline {2.1}Nomenclature}{6}{section.2.1}% 
\defcounter {refsection}{0}\relax 
\contentsline {chapter}{\numberline {3}Method}{7}{chapter.3}% 
\defcounter {refsection}{0}\relax 
\contentsline {chapter}{\numberline {4}Findings}{8}{chapter.4}% 
\defcounter {refsection}{0}\relax 
\contentsline {chapter}{\numberline {5}Conclusion}{12}{chapter.5}% 
\defcounter {refsection}{0}\relax 
\contentsline {chapter}{Appendices}{15}{section*.10}% 
\defcounter {refsection}{0}\relax 
\contentsline {chapter}{\numberline {A}Air Hockey Table}{16}{Appendix.a.A}% 
\defcounter {refsection}{0}\relax 
\contentsline {chapter}{\numberline {B}Results in computer vision program}{17}{Appendix.a.B}% 
