[0] Config.pm:304> INFO - This is Biber 2.12
[1] Config.pm:307> INFO - Logfile is 'report.blg'
[37] biber:315> INFO - === Fri Jun 14, 2019, 04:40:11
[61] Biber.pm:371> INFO - Reading 'report.bcf'
[136] Biber.pm:889> INFO - Found 18 citekeys in bib section 0
[152] Biber.pm:4093> INFO - Processing section 0
[166] Biber.pm:4254> INFO - Looking for bibtex format file 'bib.bib' for section 0
[168] bibtex.pm:1523> INFO - LaTeX decoding ...
[192] bibtex.pm:1340> INFO - Found BibTeX data source 'bib.bib'
[294] UCollate.pm:68> INFO - Overriding locale 'en-US' defaults 'normalization = NFD' with 'normalization = prenormalized'
[295] UCollate.pm:68> INFO - Overriding locale 'en-US' defaults 'variable = shifted' with 'variable = non-ignorable'
[295] Biber.pm:3921> INFO - Sorting list 'nty/global//global/global' of type 'entry' with template 'nty' and locale 'en-US'
[295] Biber.pm:3927> INFO - No sort tailoring available for locale 'en-US'
[313] bbl.pm:636> INFO - Writing 'report.bbl' with encoding 'UTF-8'
[321] bbl.pm:739> INFO - Output to report.bbl
