\relax 
\providecommand\hyper@newdestlabel[2]{}
\abx@aux@refcontext{nty/global//global/global}
\providecommand\HyperFirstAtBeginDocument{\AtBeginDocument}
\HyperFirstAtBeginDocument{\ifx\hyper@anchor\@undefined
\global\let\oldcontentsline\contentsline
\gdef\contentsline#1#2#3#4{\oldcontentsline{#1}{#2}{#3}}
\global\let\oldnewlabel\newlabel
\gdef\newlabel#1#2{\newlabelxx{#1}#2}
\gdef\newlabelxx#1#2#3#4#5#6{\oldnewlabel{#1}{{#2}{#3}}}
\AtEndDocument{\ifx\hyper@anchor\@undefined
\let\contentsline\oldcontentsline
\let\newlabel\oldnewlabel
\fi}
\fi}
\global\let\hyper@last\relax 
\gdef\HyperFirstAtBeginDocument#1{#1}
\providecommand\HyField@AuxAddToFields[1]{}
\providecommand\HyField@AuxAddToCoFields[2]{}
\ifx\qr@savematrix\@undefined\def\qr@savematrix{\begingroup\let\do\@makeother\dospecials\catcode`\{=1\catcode`\}=2\relax \qr@savematrix@int}\def\qr@savematrix@int#1#2#3#4{\endgroup}\fi
\providecommand\@newglossary[4]{}
\@newglossary{main}{glg}{gls}{glo}
\providecommand\@glsorder[1]{}
\providecommand\@istfilename[1]{}
\@istfilename{report.ist}
\@glsorder{word}
\@writefile{toc}{\boolfalse {citerequest}\boolfalse {citetracker}\boolfalse {pagetracker}\boolfalse {backtracker}\relax }
\@writefile{lof}{\boolfalse {citerequest}\boolfalse {citetracker}\boolfalse {pagetracker}\boolfalse {backtracker}\relax }
\@writefile{lot}{\boolfalse {citerequest}\boolfalse {citetracker}\boolfalse {pagetracker}\boolfalse {backtracker}\relax }
\@writefile{toc}{\defcounter {refsection}{0}\relax }\@writefile{toc}{\contentsline {chapter}{Glossary}{1}{section*.1}\protected@file@percent }
\@writefile{@@@}{\defcounter {refsection}{0}\relax }\@writefile{@@@}{\chapterbegin }
\@writefile{@@@}{\defcounter {refsection}{0}\relax }\@writefile{@@@}{\chapterbegin }
\@writefile{@@@}{\defcounter {refsection}{0}\relax }\@writefile{@@@}{\chapterbegin }
\abx@aux@cite{opencv}
\abx@aux@segm{0}{0}{opencv}
\abx@aux@cite{overweight}
\abx@aux@segm{0}{0}{overweight}
\abx@aux@cite{bmi}
\abx@aux@segm{0}{0}{bmi}
\abx@aux@cite{physac}
\abx@aux@segm{0}{0}{physac}
\abx@aux@cite{who}
\abx@aux@segm{0}{0}{who}
\abx@aux@cite{trajectory}
\abx@aux@segm{0}{0}{trajectory}
\abx@aux@cite{opponent}
\abx@aux@segm{0}{0}{opponent}
\abx@aux@cite{quentin}
\abx@aux@segm{0}{0}{quentin}
\abx@aux@cite{paulw}
\abx@aux@segm{0}{0}{paulw}
\abx@aux@cite{paulh}
\abx@aux@segm{0}{0}{paulh}
\@writefile{toc}{\defcounter {refsection}{0}\relax }\@writefile{toc}{\contentsline {chapter}{\numberline {1}Introduction}{4}{chapter.1}\protected@file@percent }
\@writefile{lof}{\defcounter {refsection}{0}\relax }\@writefile{lof}{\addvspace {10\p@ }}
\@writefile{lot}{\defcounter {refsection}{0}\relax }\@writefile{lot}{\addvspace {10\p@ }}
\@writefile{lof}{\defcounter {refsection}{0}\relax }\@writefile{lof}{\contentsline {xchapter}{Introduction}{4}{chapter.1}\protected@file@percent }
\@writefile{lot}{\defcounter {refsection}{0}\relax }\@writefile{lot}{\contentsline {xchapter}{Introduction}{4}{chapter.1}\protected@file@percent }
\newlabel{ch:introduction}{{1}{4}{Introduction}{chapter.1}{}}
\abx@aux@cite{predict}
\abx@aux@segm{0}{0}{predict}
\abx@aux@cite{cvahr}
\abx@aux@segm{0}{0}{cvahr}
\abx@aux@cite{cvahr2}
\abx@aux@segm{0}{0}{cvahr2}
\abx@aux@cite{snooker}
\abx@aux@segm{0}{0}{snooker}
\abx@aux@cite{tracking}
\abx@aux@segm{0}{0}{tracking}
\abx@aux@cite{kalmanw}
\abx@aux@segm{0}{0}{kalmanw}
\@writefile{toc}{\defcounter {refsection}{0}\relax }\@writefile{toc}{\contentsline {chapter}{\numberline {2}Preliminary investigation}{5}{chapter.2}\protected@file@percent }
\@writefile{lof}{\defcounter {refsection}{0}\relax }\@writefile{lof}{\addvspace {10\p@ }}
\@writefile{lot}{\defcounter {refsection}{0}\relax }\@writefile{lot}{\addvspace {10\p@ }}
\@writefile{lof}{\defcounter {refsection}{0}\relax }\@writefile{lof}{\contentsline {xchapter}{Preliminary investigation}{5}{chapter.2}\protected@file@percent }
\@writefile{lot}{\defcounter {refsection}{0}\relax }\@writefile{lot}{\contentsline {xchapter}{Preliminary investigation}{5}{chapter.2}\protected@file@percent }
\newlabel{ch:preinv}{{2}{5}{Preliminary investigation}{chapter.2}{}}
\abx@aux@segm{0}{0}{kalmanw}
\@writefile{toc}{\defcounter {refsection}{0}\relax }\@writefile{toc}{\contentsline {section}{\numberline {2.1}Nomenclature}{6}{section.2.1}\protected@file@percent }
\@writefile{toc}{\defcounter {refsection}{0}\relax }\@writefile{toc}{\contentsline {chapter}{\numberline {3}Method}{7}{chapter.3}\protected@file@percent }
\@writefile{lof}{\defcounter {refsection}{0}\relax }\@writefile{lof}{\addvspace {10\p@ }}
\@writefile{lot}{\defcounter {refsection}{0}\relax }\@writefile{lot}{\addvspace {10\p@ }}
\@writefile{lof}{\defcounter {refsection}{0}\relax }\@writefile{lof}{\contentsline {xchapter}{Method}{7}{chapter.3}\protected@file@percent }
\@writefile{lot}{\defcounter {refsection}{0}\relax }\@writefile{lot}{\contentsline {xchapter}{Method}{7}{chapter.3}\protected@file@percent }
\abx@aux@cite{kalman}
\abx@aux@segm{0}{0}{kalman}
\abx@aux@cite{git}
\abx@aux@segm{0}{0}{git}
\@writefile{toc}{\defcounter {refsection}{0}\relax }\@writefile{toc}{\contentsline {chapter}{\numberline {4}Findings}{8}{chapter.4}\protected@file@percent }
\@writefile{lof}{\defcounter {refsection}{0}\relax }\@writefile{lof}{\addvspace {10\p@ }}
\@writefile{lot}{\defcounter {refsection}{0}\relax }\@writefile{lot}{\addvspace {10\p@ }}
\@writefile{lof}{\defcounter {refsection}{0}\relax }\@writefile{lof}{\contentsline {xchapter}{Findings}{8}{chapter.4}\protected@file@percent }
\@writefile{lot}{\defcounter {refsection}{0}\relax }\@writefile{lot}{\contentsline {xchapter}{Findings}{8}{chapter.4}\protected@file@percent }
\@writefile{lof}{\defcounter {refsection}{0}\relax }\@writefile{lof}{\contentsline {figure}{\numberline {4.1}{\ignorespaces Situation 1: Trajectory with no bounces, and deviation on the right\relax }}{8}{figure.caption.5}\protected@file@percent }
\providecommand*\caption@xref[2]{\@setref\relax\@undefined{#1}}
\newlabel{fig:5}{{4.1}{8}{Situation 1: Trajectory with no bounces, and deviation on the right\relax }{figure.caption.5}{}}
\@writefile{lof}{\defcounter {refsection}{0}\relax }\@writefile{lof}{\contentsline {subfigure}{\numberline{(a)}{\ignorespaces {Trajectory}}}{8}{subfigure.1.1}\protected@file@percent }
\@writefile{lof}{\defcounter {refsection}{0}\relax }\@writefile{lof}{\contentsline {subfigure}{\numberline{(b)}{\ignorespaces {Deviation}}}{8}{subfigure.1.2}\protected@file@percent }
\@writefile{lof}{\defcounter {refsection}{0}\relax }\@writefile{lof}{\contentsline {figure}{\numberline {4.2}{\ignorespaces Situation 2: Trajectory with one bounce, and deviation on the right\relax }}{9}{figure.caption.6}\protected@file@percent }
\newlabel{fig:6}{{4.2}{9}{Situation 2: Trajectory with one bounce, and deviation on the right\relax }{figure.caption.6}{}}
\@writefile{lof}{\defcounter {refsection}{0}\relax }\@writefile{lof}{\contentsline {subfigure}{\numberline{(a)}{\ignorespaces {Trajectory}}}{9}{subfigure.2.1}\protected@file@percent }
\@writefile{lof}{\defcounter {refsection}{0}\relax }\@writefile{lof}{\contentsline {subfigure}{\numberline{(b)}{\ignorespaces {Deviation}}}{9}{subfigure.2.2}\protected@file@percent }
\@writefile{lof}{\defcounter {refsection}{0}\relax }\@writefile{lof}{\contentsline {figure}{\numberline {4.3}{\ignorespaces Situation 4: Trajectory with three bounces, and deviation on the right\relax }}{9}{figure.caption.7}\protected@file@percent }
\newlabel{fig:7}{{4.3}{9}{Situation 4: Trajectory with three bounces, and deviation on the right\relax }{figure.caption.7}{}}
\@writefile{lof}{\defcounter {refsection}{0}\relax }\@writefile{lof}{\contentsline {subfigure}{\numberline{(a)}{\ignorespaces {Trajectory}}}{9}{subfigure.3.1}\protected@file@percent }
\@writefile{lof}{\defcounter {refsection}{0}\relax }\@writefile{lof}{\contentsline {subfigure}{\numberline{(b)}{\ignorespaces {Deviation}}}{9}{subfigure.3.2}\protected@file@percent }
\@writefile{lof}{\defcounter {refsection}{0}\relax }\@writefile{lof}{\contentsline {figure}{\numberline {4.4}{\ignorespaces Puck/wall impact\relax }}{11}{figure.caption.8}\protected@file@percent }
\newlabel{fig:8}{{4.4}{11}{Puck/wall impact\relax }{figure.caption.8}{}}
\@writefile{toc}{\defcounter {refsection}{0}\relax }\@writefile{toc}{\contentsline {chapter}{\numberline {5}Conclusion}{12}{chapter.5}\protected@file@percent }
\@writefile{lof}{\defcounter {refsection}{0}\relax }\@writefile{lof}{\addvspace {10\p@ }}
\@writefile{lot}{\defcounter {refsection}{0}\relax }\@writefile{lot}{\addvspace {10\p@ }}
\@writefile{lof}{\defcounter {refsection}{0}\relax }\@writefile{lof}{\contentsline {xchapter}{Conclusion}{12}{chapter.5}\protected@file@percent }
\@writefile{lot}{\defcounter {refsection}{0}\relax }\@writefile{lot}{\contentsline {xchapter}{Conclusion}{12}{chapter.5}\protected@file@percent }
\@writefile{@@@}{\defcounter {refsection}{0}\relax }\@writefile{@@@}{\chapterbegin }
\@writefile{toc}{\defcounter {refsection}{0}\relax }\@writefile{toc}{\contentsline {chapter}{Appendices}{15}{section*.10}\protected@file@percent }
\@writefile{toc}{\defcounter {refsection}{0}\relax }\@writefile{toc}{\contentsline {chapter}{\numberline {A}Air Hockey Table}{16}{Appendix.a.A}\protected@file@percent }
\@writefile{lof}{\defcounter {refsection}{0}\relax }\@writefile{lof}{\addvspace {10\p@ }}
\@writefile{lot}{\defcounter {refsection}{0}\relax }\@writefile{lot}{\addvspace {10\p@ }}
\@writefile{lof}{\defcounter {refsection}{0}\relax }\@writefile{lof}{\contentsline {xchapter}{Air Hockey Table}{16}{Appendix.a.A}\protected@file@percent }
\@writefile{lot}{\defcounter {refsection}{0}\relax }\@writefile{lot}{\contentsline {xchapter}{Air Hockey Table}{16}{Appendix.a.A}\protected@file@percent }
\@writefile{lof}{\defcounter {refsection}{0}\relax }\@writefile{lof}{\contentsline {figure}{\numberline {A.1}{\ignorespaces Air hockey table\relax }}{16}{figure.caption.11}\protected@file@percent }
\newlabel{fig:1}{{A.1}{16}{Air hockey table\relax }{figure.caption.11}{}}
\global\mtcsecondpartfalse
\@writefile{toc}{\defcounter {refsection}{0}\relax }\@writefile{toc}{\contentsline {chapter}{\numberline {B}Results in computer vision program}{17}{Appendix.a.B}\protected@file@percent }
\@writefile{lof}{\defcounter {refsection}{0}\relax }\@writefile{lof}{\addvspace {10\p@ }}
\@writefile{lot}{\defcounter {refsection}{0}\relax }\@writefile{lot}{\addvspace {10\p@ }}
\@writefile{lof}{\defcounter {refsection}{0}\relax }\@writefile{lof}{\contentsline {xchapter}{Results in computer vision program}{17}{Appendix.a.B}\protected@file@percent }
\@writefile{lot}{\defcounter {refsection}{0}\relax }\@writefile{lot}{\contentsline {xchapter}{Results in computer vision program}{17}{Appendix.a.B}\protected@file@percent }
\@writefile{lof}{\defcounter {refsection}{0}\relax }\@writefile{lof}{\contentsline {figure}{\numberline {B.1}{\ignorespaces Situation 1: Trajectory without a bounce\relax }}{17}{figure.caption.12}\protected@file@percent }
\newlabel{fig:2}{{B.1}{17}{Situation 1: Trajectory without a bounce\relax }{figure.caption.12}{}}
\@writefile{lof}{\defcounter {refsection}{0}\relax }\@writefile{lof}{\contentsline {figure}{\numberline {B.2}{\ignorespaces Situation 2: Trajectory with one bounce\relax }}{18}{figure.caption.13}\protected@file@percent }
\newlabel{fig:3}{{B.2}{18}{Situation 2: Trajectory with one bounce\relax }{figure.caption.13}{}}
\@writefile{lof}{\defcounter {refsection}{0}\relax }\@writefile{lof}{\contentsline {figure}{\numberline {B.3}{\ignorespaces Situation 3: Trajectory with two bounces\relax }}{18}{figure.caption.14}\protected@file@percent }
\newlabel{fig:4}{{B.3}{18}{Situation 3: Trajectory with two bounces\relax }{figure.caption.14}{}}
\@writefile{lof}{\defcounter {refsection}{0}\relax }\@writefile{lof}{\contentsline {figure}{\numberline {B.4}{\ignorespaces Situation 4: Trajectory with three bounces\relax }}{18}{figure.caption.15}\protected@file@percent }
\newlabel{fig:10}{{B.4}{18}{Situation 4: Trajectory with three bounces\relax }{figure.caption.15}{}}
\newlabel{LastPage}{{}{18}{}{page.18}{}}
\xdef\lastpage@lastpage{18}
\xdef\lastpage@lastpageHy{18}
\abx@aux@refcontextdefaultsdone
\abx@aux@defaultrefcontext{0}{physac}{nty/global//global/global}
\abx@aux@defaultrefcontext{0}{predict}{nty/global//global/global}
\abx@aux@defaultrefcontext{0}{overweight}{nty/global//global/global}
\abx@aux@defaultrefcontext{0}{paulh}{nty/global//global/global}
\abx@aux@defaultrefcontext{0}{quentin}{nty/global//global/global}
\abx@aux@defaultrefcontext{0}{snooker}{nty/global//global/global}
\abx@aux@defaultrefcontext{0}{trajectory}{nty/global//global/global}
\abx@aux@defaultrefcontext{0}{opencv}{nty/global//global/global}
\abx@aux@defaultrefcontext{0}{kalman}{nty/global//global/global}
\abx@aux@defaultrefcontext{0}{who}{nty/global//global/global}
\abx@aux@defaultrefcontext{0}{cvahr2}{nty/global//global/global}
\abx@aux@defaultrefcontext{0}{opponent}{nty/global//global/global}
\abx@aux@defaultrefcontext{0}{cvahr}{nty/global//global/global}
\abx@aux@defaultrefcontext{0}{git}{nty/global//global/global}
\abx@aux@defaultrefcontext{0}{bmi}{nty/global//global/global}
\abx@aux@defaultrefcontext{0}{tracking}{nty/global//global/global}
\abx@aux@defaultrefcontext{0}{kalmanw}{nty/global//global/global}
\abx@aux@defaultrefcontext{0}{paulw}{nty/global//global/global}
