\relax 
\providecommand\hyper@newdestlabel[2]{}
\providecommand\HyperFirstAtBeginDocument{\AtBeginDocument}
\HyperFirstAtBeginDocument{\ifx\hyper@anchor\@undefined
\global\let\oldcontentsline\contentsline
\gdef\contentsline#1#2#3#4{\oldcontentsline{#1}{#2}{#3}}
\global\let\oldnewlabel\newlabel
\gdef\newlabel#1#2{\newlabelxx{#1}#2}
\gdef\newlabelxx#1#2#3#4#5#6{\oldnewlabel{#1}{{#2}{#3}}}
\AtEndDocument{\ifx\hyper@anchor\@undefined
\let\contentsline\oldcontentsline
\let\newlabel\oldnewlabel
\fi}
\fi}
\global\let\hyper@last\relax 
\gdef\HyperFirstAtBeginDocument#1{#1}
\providecommand\HyField@AuxAddToFields[1]{}
\providecommand\HyField@AuxAddToCoFields[2]{}
\babel@aux{english}{}
\@writefile{toc}{\contentsline {section}{\numberline {1}Introduction Project}{3}{section.1}\protected@file@percent }
\@writefile{toc}{\contentsline {section}{\numberline {2}Robot Frame}{3}{section.2}\protected@file@percent }
\@writefile{toc}{\contentsline {subsection}{\numberline {2.1}The Robotarm}{3}{subsection.2.1}\protected@file@percent }
\@writefile{toc}{\contentsline {paragraph}{\numberline {2.1.0.1}VEX}{3}{paragraph.2.1.0.1}\protected@file@percent }
\@writefile{toc}{\contentsline {paragraph}{\numberline {2.1.0.2}Wire-drive Mechanism}{4}{paragraph.2.1.0.2}\protected@file@percent }
\@writefile{toc}{\contentsline {subsection}{\numberline {2.2}The Slider Model}{4}{subsection.2.2}\protected@file@percent }
\@writefile{toc}{\contentsline {section}{\numberline {3}Conclusion: Frame Choice}{5}{section.3}\protected@file@percent }
\newlabel{LastPage}{{}{5}{}{page.5}{}}
\xdef\lastpage@lastpage{5}
\xdef\lastpage@lastpageHy{5}
