\babel@toc {english}{}
\contentsline {section}{\numberline {1}Introduction Project}{3}{section.1}% 
\contentsline {section}{\numberline {2}Robot Frame}{3}{section.2}% 
\contentsline {subsection}{\numberline {2.1}The Robotarm}{3}{subsection.2.1}% 
\contentsline {paragraph}{\numberline {2.1.0.1}VEX}{3}{paragraph.2.1.0.1}% 
\contentsline {paragraph}{\numberline {2.1.0.2}Wire-drive Mechanism}{4}{paragraph.2.1.0.2}% 
\contentsline {subsection}{\numberline {2.2}The Slider Model}{4}{subsection.2.2}% 
\contentsline {section}{\numberline {3}Conclusion: Frame Choice}{5}{section.3}% 
