\boolfalse {citerequest}\boolfalse {citetracker}\boolfalse {pagetracker}\boolfalse {backtracker}\relax 
\defcounter {refsection}{0}\relax 
\contentsline {chapter}{\numberline {1}Introduction}{2}{chapter.1}% 
\defcounter {refsection}{0}\relax 
\contentsline {chapter}{\numberline {2}Preliminary investigation}{3}{chapter.2}% 
