% $ biblatex auxiliary file $
% $ biblatex bbl format version 3.0 $
% Do not modify the above lines!
%
% This is an auxiliary file used by the 'biblatex' package.
% This file may safely be deleted. It will be recreated by
% biber as required.
%
\begingroup
\makeatletter
\@ifundefined{ver@biblatex.sty}
  {\@latex@error
     {Missing 'biblatex' package}
     {The bibliography requires the 'biblatex' package.}
      \aftergroup\endinput}
  {}
\endgroup


\refsection{0}
  \datalist[entry]{nty/global//global/global}
    \entry{cvahr2}{misc}{}
      \name{author}{1}{}{%
        {{hash=aecdbb9adadfb082a0cb0e99f7442639}{%
           family={Plate},
           familyi={P\bibinitperiod},
           given={Bort},
           giveni={B\bibinitperiod}}}%
      }
      \strng{namehash}{aecdbb9adadfb082a0cb0e99f7442639}
      \strng{fullhash}{aecdbb9adadfb082a0cb0e99f7442639}
      \strng{bibnamehash}{aecdbb9adadfb082a0cb0e99f7442639}
      \strng{authorbibnamehash}{aecdbb9adadfb082a0cb0e99f7442639}
      \strng{authornamehash}{aecdbb9adadfb082a0cb0e99f7442639}
      \strng{authorfullhash}{aecdbb9adadfb082a0cb0e99f7442639}
      \field{sortinit}{P}
      \field{sortinithash}{8d51b3d5b78d75b54308d706b9bbe285}
      \field{labelnamesource}{author}
      \field{labeltitlesource}{title}
      \field{howpublished}{\url{https://www.youtube.com/watch?v=BsjUQURxTao}}
      \field{month}{4}
      \field{title}{Air Hockey AI + Robotic Arm using Raspberry Pi and Arduino}
      \field{year}{2017}
    \endentry
    \entry{cvahr}{misc}{}
      \name{author}{1}{}{%
        {{hash=c72e006df928a0e320baf78fb3c996c2}{%
           family={RadRider33},
           familyi={R\bibinitperiod}}}%
      }
      \strng{namehash}{c72e006df928a0e320baf78fb3c996c2}
      \strng{fullhash}{c72e006df928a0e320baf78fb3c996c2}
      \strng{bibnamehash}{c72e006df928a0e320baf78fb3c996c2}
      \strng{authorbibnamehash}{c72e006df928a0e320baf78fb3c996c2}
      \strng{authornamehash}{c72e006df928a0e320baf78fb3c996c2}
      \strng{authorfullhash}{c72e006df928a0e320baf78fb3c996c2}
      \field{sortinit}{R}
      \field{sortinithash}{da6b42bd3ab22fee61abed031ee405f7}
      \field{labelnamesource}{author}
      \field{labeltitlesource}{title}
      \field{howpublished}{\url{https://www.youtube.com/watch?v=dDAm3-4XI_M}}
      \field{month}{1}
      \field{title}{Robot Air Hockey Using Computer Vision and ARM A7}
      \field{year}{2016}
    \endentry
  \enddatalist
\endrefsection
\endinput

