\relax 
\providecommand\hyper@newdestlabel[2]{}
\providecommand\HyperFirstAtBeginDocument{\AtBeginDocument}
\HyperFirstAtBeginDocument{\ifx\hyper@anchor\@undefined
\global\let\oldcontentsline\contentsline
\gdef\contentsline#1#2#3#4{\oldcontentsline{#1}{#2}{#3}}
\global\let\oldnewlabel\newlabel
\gdef\newlabel#1#2{\newlabelxx{#1}#2}
\gdef\newlabelxx#1#2#3#4#5#6{\oldnewlabel{#1}{{#2}{#3}}}
\AtEndDocument{\ifx\hyper@anchor\@undefined
\let\contentsline\oldcontentsline
\let\newlabel\oldnewlabel
\fi}
\fi}
\global\let\hyper@last\relax 
\gdef\HyperFirstAtBeginDocument#1{#1}
\providecommand\HyField@AuxAddToFields[1]{}
\providecommand\HyField@AuxAddToCoFields[2]{}
\abx@aux@refcontext{nty/global//global/global}
\@writefile{toc}{\boolfalse {citerequest}\boolfalse {citetracker}\boolfalse {pagetracker}\boolfalse {backtracker}\relax }
\@writefile{lof}{\boolfalse {citerequest}\boolfalse {citetracker}\boolfalse {pagetracker}\boolfalse {backtracker}\relax }
\@writefile{lot}{\boolfalse {citerequest}\boolfalse {citetracker}\boolfalse {pagetracker}\boolfalse {backtracker}\relax }
\babel@aux{english}{}
\abx@aux@cite{defairhockey}
\abx@aux@segm{0}{0}{defairhockey}
\abx@aux@cite{defexergaming}
\abx@aux@segm{0}{0}{defexergaming}
\abx@aux@cite{defmachlearn}
\abx@aux@segm{0}{0}{defmachlearn}
\abx@aux@cite{defbmi}
\abx@aux@segm{0}{0}{defbmi}
\abx@aux@cite{obesity}
\abx@aux@segm{0}{0}{obesity}
\abx@aux@cite{healthygame}
\abx@aux@segm{0}{0}{healthygame}
\abx@aux@segm{0}{0}{obesity}
\abx@aux@segm{0}{0}{healthygame}
\@writefile{toc}{\defcounter {refsection}{0}\relax }\@writefile{toc}{\contentsline {chapter}{\numberline {1}Introduction}{4}{chapter.1}\protected@file@percent }
\@writefile{lof}{\defcounter {refsection}{0}\relax }\@writefile{lof}{\addvspace {10\p@ }}
\@writefile{lot}{\defcounter {refsection}{0}\relax }\@writefile{lot}{\addvspace {10\p@ }}
\abx@aux@cite{bmi}
\abx@aux@segm{0}{0}{bmi}
\abx@aux@cite{sport}
\abx@aux@segm{0}{0}{sport}
\abx@aux@cite{who}
\abx@aux@segm{0}{0}{who}
\@writefile{toc}{\defcounter {refsection}{0}\relax }\@writefile{toc}{\contentsline {chapter}{\numberline {2}Preliminary Investigation}{5}{chapter.2}\protected@file@percent }
\@writefile{lof}{\defcounter {refsection}{0}\relax }\@writefile{lof}{\addvspace {10\p@ }}
\@writefile{lot}{\defcounter {refsection}{0}\relax }\@writefile{lot}{\addvspace {10\p@ }}
\@writefile{toc}{\defcounter {refsection}{0}\relax }\@writefile{toc}{\contentsline {chapter}{\numberline {3}Method}{6}{chapter.3}\protected@file@percent }
\@writefile{lof}{\defcounter {refsection}{0}\relax }\@writefile{lof}{\addvspace {10\p@ }}
\@writefile{lot}{\defcounter {refsection}{0}\relax }\@writefile{lot}{\addvspace {10\p@ }}
\abx@aux@cite{robotjapan}
\abx@aux@segm{0}{0}{robotjapan}
\abx@aux@cite{robotlakin}
\abx@aux@segm{0}{0}{robotlakin}
\abx@aux@cite{robotmwspong}
\abx@aux@segm{0}{0}{robotmwspong}
\abx@aux@cite{japanrobot}
\abx@aux@segm{0}{0}{japanrobot}
\abx@aux@cite{evojjrobot}
\abx@aux@segm{0}{0}{evojjrobot}
\abx@aux@segm{0}{0}{robotlakin}
\@writefile{toc}{\defcounter {refsection}{0}\relax }\@writefile{toc}{\contentsline {chapter}{\numberline {4}Results}{7}{chapter.4}\protected@file@percent }
\@writefile{lof}{\defcounter {refsection}{0}\relax }\@writefile{lof}{\addvspace {10\p@ }}
\@writefile{lot}{\defcounter {refsection}{0}\relax }\@writefile{lot}{\addvspace {10\p@ }}
\@writefile{toc}{\defcounter {refsection}{0}\relax }\@writefile{toc}{\contentsline {section}{\numberline {4.1}The best way of building the robot frame}{7}{section.4.1}\protected@file@percent }
\@writefile{toc}{\defcounter {refsection}{0}\relax }\@writefile{toc}{\contentsline {section}{\numberline {4.2}The Robotarm}{7}{section.4.2}\protected@file@percent }
\@writefile{toc}{\defcounter {refsection}{0}\relax }\@writefile{toc}{\contentsline {subsection}{\numberline {4.2.1}VEX}{7}{subsection.4.2.1}\protected@file@percent }
\abx@aux@segm{0}{0}{robotjapan}
\abx@aux@segm{0}{0}{japanrobot}
\@writefile{lot}{\defcounter {refsection}{0}\relax }\@writefile{lot}{\contentsline {table}{\numberline {4.1}{\ignorespaces Pros \& Cons of the model\relax }}{8}{table.caption.4}\protected@file@percent }
\@writefile{toc}{\defcounter {refsection}{0}\relax }\@writefile{toc}{\contentsline {subsection}{\numberline {4.2.2}Wire-drive Mechanism}{8}{subsection.4.2.2}\protected@file@percent }
\abx@aux@segm{0}{0}{evojjrobot}
\@writefile{lot}{\defcounter {refsection}{0}\relax }\@writefile{lot}{\contentsline {table}{\numberline {4.2}{\ignorespaces Pros \& Cons of the model\relax }}{9}{table.caption.5}\protected@file@percent }
\@writefile{toc}{\defcounter {refsection}{0}\relax }\@writefile{toc}{\contentsline {section}{\numberline {4.3}The Slider Model}{9}{section.4.3}\protected@file@percent }
\@writefile{lot}{\defcounter {refsection}{0}\relax }\@writefile{lot}{\contentsline {table}{\numberline {4.3}{\ignorespaces Pros \& Cons of the model\relax }}{10}{table.caption.6}\protected@file@percent }
\@writefile{toc}{\defcounter {refsection}{0}\relax }\@writefile{toc}{\contentsline {chapter}{\numberline {5}Conclusion}{11}{chapter.5}\protected@file@percent }
\@writefile{lof}{\defcounter {refsection}{0}\relax }\@writefile{lof}{\addvspace {10\p@ }}
\@writefile{lot}{\defcounter {refsection}{0}\relax }\@writefile{lot}{\addvspace {10\p@ }}
\@writefile{toc}{\defcounter {refsection}{0}\relax }\@writefile{toc}{\contentsline {chapter}{Bibliography}{12}{chapter*.7}\protected@file@percent }
\@writefile{toc}{\defcounter {refsection}{0}\relax }\@writefile{toc}{\contentsline {chapter}{Appendix}{14}{chapter*.8}\protected@file@percent }
\@writefile{lof}{\defcounter {refsection}{0}\relax }\@writefile{lof}{\contentsline {figure}{\numberline {5.1}{\ignorespaces Concept Sketch AirHockey3000 Robot.\relax }}{14}{figure.caption.9}\protected@file@percent }
\providecommand*\caption@xref[2]{\@setref\relax\@undefined{#1}}
\newlabel{fig:robotframe}{{5.1}{14}{Concept Sketch AirHockey3000 Robot.\relax }{figure.caption.9}{}}
\newlabel{LastPage}{{}{14}{}{page.14}{}}
\xdef\lastpage@lastpage{14}
\xdef\lastpage@lastpageHy{14}
\abx@aux@refcontextdefaultsdone
\abx@aux@defaultrefcontext{0}{robotjapan}{nty/global//global/global}
\abx@aux@defaultrefcontext{0}{healthygame}{nty/global//global/global}
\abx@aux@defaultrefcontext{0}{obesity}{nty/global//global/global}
\abx@aux@defaultrefcontext{0}{defairhockey}{nty/global//global/global}
\abx@aux@defaultrefcontext{0}{defexergaming}{nty/global//global/global}
\abx@aux@defaultrefcontext{0}{defbmi}{nty/global//global/global}
\abx@aux@defaultrefcontext{0}{sport}{nty/global//global/global}
\abx@aux@defaultrefcontext{0}{japanrobot}{nty/global//global/global}
\abx@aux@defaultrefcontext{0}{who}{nty/global//global/global}
\abx@aux@defaultrefcontext{0}{robotlakin}{nty/global//global/global}
\abx@aux@defaultrefcontext{0}{evojjrobot}{nty/global//global/global}
\abx@aux@defaultrefcontext{0}{robotmwspong}{nty/global//global/global}
\abx@aux@defaultrefcontext{0}{defmachlearn}{nty/global//global/global}
\abx@aux@defaultrefcontext{0}{bmi}{nty/global//global/global}
